…
> 
> flush(stderr()); flush(stdout())
> 
> ### Name: Get_InnerAreas
> ### Title: Download the classification of peripheral municipalities
> ### Aliases: Get_InnerAreas
> 
> ### ** Examples
> 
> 
> 
> InnerAreas <- Get_InnerAreas(autoAbort = TRUE)
> 
> InnerAreas[, c(1,9,13)]
# A tibble: 7,903 × 3
   Municipality_code Municipality_description Inner_area_description_2021_2027
   <chr>             <chr>                    <chr>                           
 1 001001            Agliè                    C - Cintura                     
 2 001002            Airasca                  C - Cintura                     
 3 001003            Ala di Stura             E - Periferico                  
 4 001004            Albiano d'Ivrea          C - Cintura                     
 5 001006            Almese                   C - Cintura                     
 6 001007            Alpette                  E - Periferico                  
 7 001008            Alpignano                B - Polo intercomunale          
 8 001009            Andezeno                 C - Cintura                     
 9 001010            Andrate                  C - Cintura                     
10 001011            Angrogna                 D - Intermedio                  
# ℹ 7,893 more rows
…
> flush(stderr()); flush(stdout())
> 
> ### Name: Get_nteachers_prov
> ### Title: Download the number of teachers in Italian schools by province
> ### Aliases: Get_nteachers_prov
> 
> ### ** Examples
> 
> 
> 
> nteachers23 <- Get_nteachers_prov(2023, filename = "DOCTIT", autoAbort = TRUE)
Found  DOCTIT20222320230831.csv  as element  1 
CSV file downloaded: DOCTIT20222320230831.csv  ... 0.79  seconds required 
> nteachers23[, c(3,4,5)]
# A tibble: 312 × 3
   Province_description Order   Tot_teachers
   <chr>                <chr>          <dbl>
 1 Agrigento            Primary         1854
 2 Agrigento            Middle          1441
 3 Agrigento            High            2146
 4 Alessandria          Primary         1365
 5 Alessandria          Middle           773
 6 Alessandria          High            1142
 7 Ancona               Primary         1972
 8 Ancona               Middle          1141
 9 Ancona               High            2139
10 Arezzo               Primary         1239
# ℹ 302 more rows
…
> ###   the municipality and province level
> ### Aliases: Group_DB_MIUR
> 
> ### ** Examples
> 
> 
> 
> library(magrittr)
> DB23_MIUR <- example_input_DB23_MIUR %>% Util_DB_MIUR_num(verbose = FALSE) %>%
+     Group_DB_MIUR(InnerAreas = FALSE)
> 
> 
> 
> DB23_MIUR$Municipality_data[, -c(1,2,4)]
# A tibble: 2,226 × 27
   Municipality_description Province_initials Order   nbuildings
   <chr>                    <chr>             <chr>        <int>
 1 Ailano                   CE                Middle           2
 2 Ailano                   CE                Primary          2
 3 Alife                    CE                High             6
 4 Alife                    CE                Middle           1
 5 Alife                    CE                Primary          2
 6 Alvignano                CE                Middle           1
 7 Alvignano                CE                Primary          2
 8 Arienzo                  CE                Middle           2
 9 Arienzo                  CE                Primary          4
10 Aversa                   CE                High            33
# ℹ 2,216 more rows
# ℹ 23 more variables: Context_without_disturbances <dbl>,
#   Dumps_proximity <dbl>, Pollutant_industries_proximity <dbl>,
#   Pollutant_waters_proximity <dbl>, Air_pollution_sources_proximity <dbl>,
#   Acoustic_pollution_sources_proximity <dbl>,
#   Electromagnetic_radiation_sources_proximity <dbl>,
#   Graveyards_proximity <dbl>, School_area_specific_criticalities <dbl>, …
…
 Mean   :0.3897              Mean   :0.06767   Mean   :0.8038   
 3rd Qu.:1.0000              3rd Qu.:0.00000   3rd Qu.:1.0000   
 Max.   :1.0000              Max.   :1.00000   Max.   :1.0000   
 NA's   :7                   NA's   :7         NA's   :7        
 Disabled_people_transport  Bicycle_lane   
 Min.   :0.0000            Min.   :0.0000  
 1st Qu.:0.0000            1st Qu.:0.0000  
 Median :0.5000            Median :0.0000  
 Mean   :0.4948            Mean   :0.0389  
 3rd Qu.:1.0000            3rd Qu.:0.0000  
 Max.   :1.0000            Max.   :1.0000  
 NA's   :7                 NA's   :905     
> 
> DB23_MIUR$Province_data[, -c(1,3)]
# A tibble: 45 × 26
   Province_code Order   nbuildings Context_without_disturbances Dumps_proximity
           <dbl> <chr>        <int>                        <dbl>           <dbl>
 1            61 High           176                       0.0857         0.0114 
 2            61 Middle         184                       0.258          0      
 3            61 Primary        316                       0.172          0.00318
 4            62 High           109                       0.0556         0      
 5            62 Middle          93                       0.110          0      
 6            62 Primary        128                       0.168          0      
 7            63 High           542                       0.461          0.00419
 8            63 Middle         416                       0.394          0.0391 
 9            63 Primary        786                       0.400          0.0246 
10            64 High           118                       0.0431         0      
# ℹ 35 more rows
# ℹ 21 more variables: Pollutant_industries_proximity <dbl>,
#   Pollutant_waters_proximity <dbl>, Air_pollution_sources_proximity <dbl>,
#   Acoustic_pollution_sources_proximity <dbl>,
#   Electromagnetic_radiation_sources_proximity <dbl>,
#   Graveyards_proximity <dbl>, School_area_specific_criticalities <dbl>,
#   Layby_absence <dbl>, Unfenced_area <dbl>, Large_traffic <dbl>, …
…
Total time needed to build the database:  2.861637  seconds 
 
> 
> 
> DB23_prov
# A tibble: 45 × 64
   Province_code Province_initials Order   M_Italian_5 S_Italian_5 C_Italian_5
           <dbl> <chr>             <chr>         <dbl>       <dbl>       <dbl>
 1            64 AV                Middle          NA         NA          NA  
 2            61 CE                Primary        180.        47.9        85.4
 3            61 CE                Middle          NA         NA          NA  
 4            63 NA                High            NA         NA          NA  
 5            65 SA                Primary        186.        46.7        88.3
 6            63 NA                Primary        182.        47.8        77.7
 7            64 AV                High            NA         NA          NA  
 8            65 SA                High            NA         NA          NA  
 9            63 NA                Middle          NA         NA          NA  
10            76 PZ                Middle          NA         NA          NA  
# ℹ 35 more rows
# ℹ 58 more variables: M_Italian_8 <dbl>, S_Italian_8 <dbl>, C_Italian_8 <dbl>,
#   M_Italian_13 <dbl>, S_Italian_13 <dbl>, C_Italian_13 <dbl>,
#   nbuildings <int>, School_bus <dbl>, Urban_public_transport <dbl>,
#   Interurban_public_transport <dbl>, Railway_transport <dbl>,
#   Private_transport <dbl>, Disabled_people_transport <dbl>,
#   Bicycle_lane <dbl>, Inner_area <dbl>, Students_grade_1 <dbl>, …
…
> ### Title: Check how many schools in the school registries are included in
> ###   the students count dataframe
> ### Aliases: Util_Check_nstud_availability
> 
> ### ** Examples
> 
> 
> nstud23 <- Util_nstud_wide(example_input_nstud23, verbose = FALSE)
> 
> Util_Check_nstud_availability(nstud23, Year = 2023,
+   input_Registry = example_input_Registry23, InnerAreas = FALSE,
+   input_School2mun = example_School2mun23, input_Prov_shp = example_Prov22_shp)
$Municipality_data
$Municipality_data$Registry_from_buildings
# A tibble: 2,226 × 8
   Order Municipality_code Municipality_description Province_code
   <chr> <chr>             <chr>                            <dbl>
 1 High  061002            Alife                               61
 2 High  061005            Aversa                              61
 3 High  061009            Caiazzo                             61
 4 High  061012            Cancello Ed Arnone                  61
 5 High  061015            Capua                               61
 6 High  061022            Caserta                             61
 7 High  061027            Castel Volturno                     61
 8 High  061029            Cesa                                61
 9 High  061042            Grazzanise                          61
10 High  061048            Maddaloni                           61
# ℹ 2,216 more rows
# ℹ 4 more variables: Province_initials <chr>, Available <dbl>,
#   Unavailable <dbl>, Availability <dbl>

$Municipality_data$Registry_from_registry
# A tibble: 2,324 × 8
   Order Municipality_code Municipality_description Province_code
   <chr> <chr>             <chr>                            <dbl>
 1 High  061002            Alife                               61
 2 High  061004            Arienzo                             61
 3 High  061005            Aversa                              61
 4 High  061009            Caiazzo                             61
 5 High  061012            Cancello Ed Arnone                  61
 6 High  061015            Capua                               61
 7 High  061017            Carinola                            61
 8 High  061019            Casal Di Principe                   61
 9 High  061022            Caserta                             61
10 High  061027            Castel Volturno                     61
# ℹ 2,314 more rows
# ℹ 4 more variables: Province_initials <chr>, Available <dbl>,
#   Unavailable <dbl>, Availability <dbl>

$Municipality_data$Any
# A tibble: 2,327 × 8
   Order Municipality_code Municipality_description Province_code
   <chr> <chr>             <chr>                            <dbl>
 1 High  061002            Alife                               61
 2 High  061004            Arienzo                             61
 3 High  061005            Aversa                              61
 4 High  061009            Caiazzo                             61
 5 High  061012            Cancello Ed Arnone                  61
 6 High  061015            Capua                               61
 7 High  061017            Carinola                            61
 8 High  061019            Casal Di Principe                   61
 9 High  061022            Caserta                             61
10 High  061027            Castel Volturno                     61
# ℹ 2,317 more rows
# ℹ 4 more variables: Province_initials <chr>, Available <dbl>,
#   Unavailable <dbl>, Availability <dbl>

$Municipality_data$Both
# A tibble: 2,227 × 8
   Order Municipality_code Municipality_description Province_code
   <chr> <chr>             <chr>                            <dbl>
 1 High  061002            Alife                               61
 2 High  061005            Aversa                              61
 3 High  061009            Caiazzo                             61
 4 High  061012            Cancello Ed Arnone                  61
 5 High  061015            Capua                               61
 6 High  061022            Caserta                             61
 7 High  061027            Castel Volturno                     61
 8 High  061029            Cesa                                61
 9 High  061042            Grazzanise                          61
10 High  061048            Maddaloni                           61
# ℹ 2,217 more rows
# ℹ 4 more variables: Province_initials <chr>, Available <dbl>,
#   Unavailable <dbl>, Availability <dbl>


$Province_data
$Province_data$Registry_from_buildings
# A tibble: 45 × 6
   Order Province_code Province_initials Available Unavailable Availability
   <chr>         <dbl> <chr>                 <dbl>       <dbl>        <dbl>
 1 High             61 CE                      105           4        0.963
 2 High             62 BN                       64          11        0.853
 3 High             63 NA                      324          14        0.959
 4 High             64 AV                       80           6        0.930
 5 High             65 SA                      147          14        0.913
 6 High             70 CB                       39           1        0.975
 7 High             71 FG                       99           2        0.980
 8 High             72 BA                      154          15        0.911
 9 High             73 TA                       79           3        0.963
10 High             74 BR                       44           1        0.978
# ℹ 35 more rows

$Province_data$Registry_from_registry
# A tibble: 45 × 6
   Order Province_code Province_initials Available Unavailable Availability
   <chr>         <dbl> <chr>                 <dbl>       <dbl>        <dbl>
 1 High             61 CE                      105          32        0.766
 2 High             62 BN                       64          15        0.810
 3 High             63 NA                      319          98        0.765
 4 High             64 AV                       80          16        0.833
 5 High             65 SA                      147          17        0.896
 6 High             70 CB                       39           8        0.830
 7 High             71 FG                       98           5        0.951
 8 High             72 BA                      152          20        0.884
 9 High             73 TA                       79           7        0.919
10 High             74 BR                       44           1        0.978
# ℹ 35 more rows

$Province_data$Any
# A tibble: 45 × 6
   Order Province_code Province_initials Available Unavailable Availability
   <chr>         <dbl> <chr>                 <dbl>       <dbl>        <dbl>
 1 High             61 CE                      105          32        0.766
 2 High             62 BN                       64          15        0.810
 3 High             63 NA                      327         100        0.766
 4 High             64 AV                       80          16        0.833
 5 High             65 SA                      147          18        0.891
 6 High             70 CB                       39           8        0.830
 7 High             71 FG                       99           5        0.952
 8 High             72 BA                      154          20        0.885
 9 High             73 TA                       79           7        0.919
10 High             74 BR                       44           1        0.978
# ℹ 35 more rows

$Province_data$Both
# A tibble: 45 × 6
   Order Province_code Province_initials Available Unavailable Availability
   <chr>         <dbl> <chr>                 <dbl>       <dbl>        <dbl>
 1 High             61 CE                      105           4        0.963
 2 High             62 BN                       64          11        0.853
 3 High             63 NA                      319          12        0.964
 4 High             64 AV                       80           6        0.930
 5 High             65 SA                      147          14        0.913
 6 High             70 CB                       39           1        0.975
 7 High             71 FG                       98           2        0.98 
 8 High             72 BA                      152          15        0.910
 9 High             73 TA                       79           3        0.963
10 High             74 BR                       44           1        0.978
# ℹ 35 more rows
…
> ### Aliases: Util_DB_MIUR_num
> 
> ### ** Examples
> 
> 
> library(magrittr)
> 
> DB23_MIUR_num <- example_input_DB23_MIUR %>% Util_DB_MIUR_num(track_deleted = FALSE)
Converting dichotomic variables to Boolean:
Setting numeric variables: 
Total running time needed to convert data to numeric variables: 0.44 seconds 
> 
> 
> DB23_MIUR_num[, -c(1,4,6,8,9,10)]
# A tibble: 7,479 × 27
   School_code Order Building_code Municipality_descrip…¹ Context_without_dist…²
   <chr>       <chr> <chr>         <chr>                                   <dbl>
 1 AVMM87102A  Midd… 0640140003    Calabritto                                  1
 2 CEEE82502E  Prim… 0611001229    Vitulazio                                   0
 3 CEMM86803C  Midd… 0610060002    Baia E Latina                               0
 4 NARC00701V  High  0630040004    Anacapri                                   NA
 5 NARC00701V  High  0630040003    Anacapri                                    1
 6 SAEE158002  Prim… 0651351773    Sarno                                       0
 7 NAPS22000D  High  0630494043    Napoli                                     NA
 8 NAPS22000D  High  0630490805    Napoli                                      0
 9 NAEE8FJ02G  Prim… 0630680439    San Giuseppe Vesuviano                      0
10 NAEE8DT011  Prim… 0630430013    Marigliano                                  1
# ℹ 7,469 more rows
# ℹ abbreviated names: ¹​Municipality_description, ²​Context_without_disturbances
# ℹ 22 more variables: Dumps_proximity <dbl>,
#   Pollutant_industries_proximity <dbl>, Pollutant_waters_proximity <dbl>,
#   Air_pollution_sources_proximity <dbl>,
#   Acoustic_pollution_sources_proximity <dbl>,
#   Electromagnetic_radiation_sources_proximity <dbl>, …
…
> 
> nstud.default <- Util_nstud_wide(example_input_nstud23)
> 
> 
> nstud.narrow <- Util_nstud_wide(example_input_nstud23,
+   UB_nstud_byclass = 35, LB_nstud_byclass = 5 )
Filtered out 97 schools with less than 5  or more than 35 students per class
> 
> nrow(nstud.default)
[1] 5116
> nrow(nstud.narrow)
[1] 5019
> 
> nstud.default
# A tibble: 5,116 × 44
   School_code Order   Students_grade_1 Classes_grade_1 Students_per_class_1
   <chr>       <chr>              <dbl>           <dbl>                <dbl>
 1 NAEE8D901X  Primary               16               1                 16  
 2 CEMM189008  Middle                 0               0                  0  
 3 SAEE8AB02R  Primary               15               1                 15  
 4 PZEE88201T  Primary                9               1                  9  
 5 SAPS01000G  High                   0               0                  0  
 6 SAEE07408B  Primary               25               2                 12.5
 7 BNEE82504G  Primary                8               1                  8  
 8 BAEE8AA018  Primary               73               4                 18.2
 9 SAMM8AQ05T  Middle                 0               0                  0  
10 NAEE8C602V  Primary               26               2                 13  
# ℹ 5,106 more rows
# ℹ 39 more variables: Students_grade_2 <dbl>, Classes_grade_2 <dbl>,
#   Students_per_class_2 <dbl>, Students_grade_3 <dbl>, Classes_grade_3 <dbl>,
#   Students_per_class_3 <dbl>, Students_grade_4 <dbl>, Classes_grade_4 <dbl>,
#   Students_per_class_4 <dbl>, Students_grade_5 <dbl>, Classes_grade_5 <dbl>,
#   Students_per_class_5 <dbl>, Students_grade_6 <dbl>, Classes_grade_6 <dbl>,
#   Students_per_class_6 <dbl>, Students_grade_7 <dbl>, …
…
